{
	"name": "renovate-runner-devenv",
	"image": "registry.access.redhat.com/ubi9/ubi-minimal:9.2-717",
	"workspaceMount": "",
	"runArgs": [
  		"--volume=${localWorkspaceFolder}:${containerWorkspaceFolder}:Z"
	]
}
